<?xml version="1.0" encoding="UTF-8"?>
<testsuite name="fr.uga.pddl4j.test.hsp.HSPTest" tests="39" skipped="0" failures="0" errors="0" timestamp="2018-05-28T12:58:04" hostname="atteqacerpc-Aspire-A515-51" time="0.357">
  <properties/>
  <testcase name="testHSP_IPC3_zenotravel" classname="fr.uga.pddl4j.test.hsp.HSPTest" time="0.255"/>
  <testcase name="testHSP_newTests_Zenotravel" classname="fr.uga.pddl4j.test.hsp.HSPTest" time="0.0"/>
  <testcase name="testHSP_IPC5_pathways" classname="fr.uga.pddl4j.test.hsp.HSPTest" time="0.0"/>
  <testcase name="testHSP_IPC1_mystery" classname="fr.uga.pddl4j.test.hsp.HSPTest" time="0.001"/>
  <testcase name="testHSP_IPC5_openstacks" classname="fr.uga.pddl4j.test.hsp.HSPTest" time="0.0"/>
  <testcase name="testHSP_IPC4_psr" classname="fr.uga.pddl4j.test.hsp.HSPTest" time="0.001"/>
  <testcase name="testHSP_IPC5_tpp" classname="fr.uga.pddl4j.test.hsp.HSPTest" time="0.001"/>
  <testcase name="testHSP_IPC4_pipeworld" classname="fr.uga.pddl4j.test.hsp.HSPTest" time="0.0"/>
  <testcase name="testHSP_IPC6_sokoban" classname="fr.uga.pddl4j.test.hsp.HSPTest" time="0.001"/>
  <testcase name="testHSP_json_output_plan" classname="fr.uga.pddl4j.test.hsp.HSPTest" time="0.089"/>
  <testcase name="testHSP_IPC8_childsnack" classname="fr.uga.pddl4j.test.hsp.HSPTest" time="0.0"/>
  <testcase name="testHSP_IPC3_depots" classname="fr.uga.pddl4j.test.hsp.HSPTest" time="0.001"/>
  <testcase name="testHSP_IPC6_transport" classname="fr.uga.pddl4j.test.hsp.HSPTest" time="0.0"/>
  <testcase name="testHSP_IPC4_airport" classname="fr.uga.pddl4j.test.hsp.HSPTest" time="0.0"/>
  <testcase name="testHSP_IPC8_hiking" classname="fr.uga.pddl4j.test.hsp.HSPTest" time="0.0"/>
  <testcase name="testHSP_IPC3_rover" classname="fr.uga.pddl4j.test.hsp.HSPTest" time="0.0"/>
  <testcase name="testHSP_IPC4_optical_telegraph" classname="fr.uga.pddl4j.test.hsp.HSPTest" time="0.0"/>
  <testcase name="testHSP_IPC6_pegsol" classname="fr.uga.pddl4j.test.hsp.HSPTest" time="0.0"/>
  <testcase name="testHSP_IPC2_freecell" classname="fr.uga.pddl4j.test.hsp.HSPTest" time="0.001"/>
  <testcase name="testHSP_IPC4_philosophers" classname="fr.uga.pddl4j.test.hsp.HSPTest" time="0.0"/>
  <testcase name="testHSP_ICP1_mprime" classname="fr.uga.pddl4j.test.hsp.HSPTest" time="0.0"/>
  <testcase name="testHSP_IPC5_storage" classname="fr.uga.pddl4j.test.hsp.HSPTest" time="0.0"/>
  <testcase name="testHSP_IPC7_nomystery" classname="fr.uga.pddl4j.test.hsp.HSPTest" time="0.0"/>
  <testcase name="testHSP_IPC1_logistics" classname="fr.uga.pddl4j.test.hsp.HSPTest" time="0.0"/>
  <testcase name="testHSP_IPC2_blocksworld" classname="fr.uga.pddl4j.test.hsp.HSPTest" time="0.0"/>
  <testcase name="testHSP_IPC8_thoughtful" classname="fr.uga.pddl4j.test.hsp.HSPTest" time="0.0"/>
  <testcase name="testHSP_IPC5_truck" classname="fr.uga.pddl4j.test.hsp.HSPTest" time="0.0"/>
  <testcase name="testHSP_IPC1_gripper" classname="fr.uga.pddl4j.test.hsp.HSPTest" time="0.0"/>
  <testcase name="testHSP_IPC7_barman" classname="fr.uga.pddl4j.test.hsp.HSPTest" time="0.0"/>
  <testcase name="testHSP_IPC3_satellite" classname="fr.uga.pddl4j.test.hsp.HSPTest" time="0.0"/>
  <testcase name="testHSP_newTests_Depots" classname="fr.uga.pddl4j.test.hsp.HSPTest" time="0.001"/>
  <testcase name="testHSP_IPC2_elevator" classname="fr.uga.pddl4j.test.hsp.HSPTest" time="0.0"/>
  <testcase name="testHSP_IPC3_driverlog" classname="fr.uga.pddl4j.test.hsp.HSPTest" time="0.0"/>
  <testcase name="testHSP_IPC1_movie" classname="fr.uga.pddl4j.test.hsp.HSPTest" time="0.0"/>
  <testcase name="testHSP_newTests_Freecell" classname="fr.uga.pddl4j.test.hsp.HSPTest" time="0.0"/>
  <testcase name="testHSP_newTests_Satellite" classname="fr.uga.pddl4j.test.hsp.HSPTest" time="0.0"/>
  <testcase name="testHSP_newTests_DriverLog" classname="fr.uga.pddl4j.test.hsp.HSPTest" time="0.0"/>
  <testcase name="testHSP_IPC7_parking" classname="fr.uga.pddl4j.test.hsp.HSPTest" time="0.0"/>
  <testcase name="testHSP_newTests_Rover" classname="fr.uga.pddl4j.test.hsp.HSPTest" time="0.0"/>
  <system-out><![CDATA[missing Benchmark [directory: benchmarks/ipc3/zenotravel/] test skipped !
missing Benchmark [directory: benchmarks/newTests/Zenotravel/] test skipped !
missing Benchmark [directory: benchmarks/ipc5/pathways/] test skipped !
missing Benchmark [directory: benchmarks/ipc1/mystery/] test skipped !
missing Benchmark [directory: benchmarks/ipc5/openstacks/] test skipped !
missing Benchmark [directory: benchmarks/ipc4/psr/] test skipped !
missing Benchmark [directory: benchmarks/ipc5/tpp/] test skipped !
missing Benchmark [directory: benchmarks/ipc5/pipeworld/] test skipped !
missing Benchmark [directory: benchmarks/ipc6/sokoban/] test skipped !
missing Benchmark [directory: benchmarks/ipc8/childsnack/] test skipped !
missing Benchmark [directory: benchmarks/ipc3/depot/] test skipped !
missing Benchmark [directory: benchmarks/ipc6/transport/] test skipped !
missing Benchmark [directory: benchmarks/ipc4/airport/] test skipped !
missing Benchmark [directory: benchmarks/ipc8/hiking/] test skipped !
missing Benchmark [directory: benchmarks/ipc3/rover/] test skipped !
missing Benchmark [directory: benchmarks/ipc4/optical-telegraph/] test skipped !
missing Benchmark [directory: benchmarks/ipc6/pegsol/] test skipped !
missing Benchmark [directory: benchmarks/ipc2/freecell/] test skipped !
missing Benchmark [directory: benchmarks/ipc4/philosophers/] test skipped !
missing Benchmark [directory: benchmarks/ipc1/mprime/] test skipped !
missing Benchmark [directory: benchmarks/ipc5/storage/] test skipped !
missing Benchmark [directory: benchmarks/ipc7/nomystery/] test skipped !
missing Benchmark [directory: benchmarks/ipc1/logistics/] test skipped !
missing Benchmark [directory: benchmarks/ipc2/blocksworld/] test skipped !
missing Benchmark [directory: benchmarks/ipc8/thoughtful/] test skipped !
missing Benchmark [directory: benchmarks/ipc5/truck/] test skipped !
missing Benchmark [directory: benchmarks/ipc1/gripper/] test skipped !
missing Benchmark [directory: benchmarks/ipc7/barman/] test skipped !
missing Benchmark [directory: benchmarks/ipc3/satellite/] test skipped !
missing Benchmark [directory: benchmarks/newTests/Depots/] test skipped !
missing Benchmark [directory: benchmarks/ipc2/elevator/] test skipped !
missing Benchmark [directory: benchmarks/ipc3/driverlog/] test skipped !
missing Benchmark [directory: benchmarks/ipc1/movie/] test skipped !
missing Benchmark [directory: benchmarks/newTests/Freecell/] test skipped !
missing Benchmark [directory: benchmarks/newTests/Satellite/] test skipped !
missing Benchmark [directory: benchmarks/newTests/DriverLog/] test skipped !
missing Benchmark [directory: benchmarks/ipc7/parking/] test skipped !
missing Benchmark [directory: benchmarks/newTests/Rover/] test skipped !
]]></system-out>
  <system-err><![CDATA[]]></system-err>
</testsuite>
